ggplot2: Elegant Graphics for Data Analysis (3e) | Part 1 – Ozan Ozbeker
…
2 First Steps

2.1 Introduction

The goal of this chapter it so introduce the reader to {ggplot2} as quickly as possible. Because it’s an intro, I will not be formatting the plots any further than the questions ask for.

2.2 Fuel Economy Data

In this chapter, we will be using mostly one data set, mpg, from http://fueleconomy.gov. It holds information about the fuel economy of popular car models in 1999 & 2009.

library(tidyverse) # Data Wrangling, includes {ggplot2}

mpg

# A tibble: 234 × 11
   manufacturer model      displ  year   cyl trans drv     cty   hwy fl    class
   <chr>        <chr>      <dbl> <int> <int> <chr> <chr> <int> <int> <chr> <chr>
 1 audi         a4           1.8  1999     4 auto… f        18    29 p     comp…
 2 audi         a4           1.8  1999     4 manu… f        21    29 p     comp…
 3 audi         a4           2    2008     4 manu… f        20    31 p     comp…
 4 audi         a4           2    2008     4 auto… f        21    30 p     comp…
 5 audi         a4           2.8  1999     6 auto… f        16    26 p     comp…
 6 audi         a4           2.8  1999     6 manu… f        18    26 p     comp…
 7 audi         a4           3.1  2008     6 auto… f        18    27 p     comp…
 8 audi         a4 quattro   1.8  1999     4 manu… 4        18    26 p     comp…
 9 audi         a4 quattro   1.8  1999     4 auto… 4        16    25 p     comp…
10 audi         a4 quattro   2    2008     4 manu… 4        20    28 p     comp…
# ℹ 224 more rows
…
  g_p_m = 1 / mpg
  l_p_km = 3.78541 / 1.60934    # we multiply by 100 because it's "per 100"
  l100km = l_p_km * 100 * g_p_m # the denominator 100 cancels right hand 100
  
  return(l100km)
}

mpg |> dplyr::mutate(
  cty_euro = us_to_euro(cty), 
  hwy_euro = us_to_euro(hwy), 
  .keep = 'used')

# A tibble: 234 × 4
     cty   hwy cty_euro hwy_euro
   <int> <int>    <dbl>    <dbl>
 1    18    29     13.1     8.11
 2    21    29     11.2     8.11
 3    20    31     11.8     7.59
 4    21    30     11.2     7.84
 5    16    26     14.7     9.05
 6    18    26     13.1     9.05
 7    18    27     13.1     8.71
 8    18    26     13.1     9.05
 9    16    25     14.7     9.41
10    20    28     11.8     8.40
# ℹ 224 more rows
…
 3 dodge           37
 4 ford            25
 5 honda            9
 6 hyundai         14
 7 jeep             8
 8 land rover       4
 9 lincoln          3
10 mercury          4
11 nissan          13
12 pontiac          5
13 subaru          14
14 toyota          34
15 volkswagen      27

# A tibble: 38 × 2
   model                  n
   <chr>              <int>
 1 4runner 4wd            6
 2 a4                     7
 3 a4 quattro             8
 4 a6 quattro             3
 5 altima                 6
 6 c1500 suburban 2wd     5
 7 camry                  7
 8 camry solara           7
 9 caravan 2wd           11
10 civic                  9
# ℹ 28 more rows

# A tibble: 35 × 2
   model_base     n
   <chr>      <int>
 1 4runner        6
 2 a4            15
 3 a6             3
 4 altima         6
 5 c1500          5
 6 camry         14
 7 caravan       11
 8 civic          9
 9 corolla        5
10 corvette       5
# ℹ 25 more rows
…
